id,name,model_id:id,group_id:id,perm_read,perm_write,perm_create,perm_unlink
access_product_product_public,product.product.public,product.model_product_product,,1,0,0,0
access_product_template_public,product.template.public,product.model_product_template,,1,0,0,0
access_product_category_public,product.category.public,product.model_product_category,,1,0,0,0
access_product_category_pos_manager,product.public.category manager,model_product_public_category,sales_team.group_sale_manager,1,1,1,1
access_product_public_category_public,product.category.public,model_product_public_category,,1,0,0,0
access_product_pricelist_public,product.pricelist.public,product.model_product_pricelist,,1,0,0,0
access_product_pricelist_item_public,product.pricelist.item.public,product.model_product_pricelist_item,,1,0,0,0
access_product_style,product.style.public,website_sale.model_product_style,,1,0,0,0
access_product_supplierinfo,product.supplierinfo.public,product.model_product_supplierinfo,,1,0,0,0
access_product_attribute_public,product.attribute public,product.model_product_attribute,,1,0,0,0
access_product_attribute_value_public,product.attribute value public,product.model_product_attribute_value,,1,0,0,0
access_product_attribute_price_public,product.attribute price public,product.model_product_attribute_price,,1,0,0,0
access_product_attribute_line_public,product.attribute line public,product.model_product_attribute_line,,1,0,0,0
access_fiscal_position_public,fiscal position public,account.model_account_fiscal_position,base.group_portal,1,0,0,0
access_payment_term,payment term public,account.model_account_payment_term,base.group_portal,1,0,0,0
access_product_supplierinfo_user,product.supplierinfo.user,product.model_product_supplierinfo,base.group_public,1,0,0,0
access_account_tax_user,account.tax,account.model_account_tax,base.group_public,1,0,0,0
access_product_image_public,product.image public,model_product_image,,1,0,0,0
access_product_image_publisher,product.image wbesite publisher,model_product_image,website.group_website_publisher,1,1,1,1
access_product_image_sale,product.image sale,model_product_image,sales_team.group_sale_manager,1,1,1,1
